{
	"credit": "Made with Blockbench",
	"texture_size": [32, 32],
	"textures": {
		"41": "block/wailmerpail"
	},
	"elements": [
		{
			"from": [6, 0, 6],
			"to": [10, 1, 10],
			"faces": {
				"north": {"uv": [7, 4, 9, 4.5], "texture": "#41"},
				"east": {"uv": [7, 4.5, 9, 5], "texture": "#41"},
				"south": {"uv": [7, 5, 9, 5.5], "texture": "#41"},
				"west": {"uv": [7, 5.5, 9, 6], "texture": "#41"},
				"up": {"uv": [2, 8, 0, 6], "texture": "#41"},
				"down": {"uv": [8, 0, 6, 2], "texture": "#41"}
			}
		},
		{
			"from": [6, 4, 6],
			"to": [10, 5, 10],
			"faces": {
				"north": {"uv": [6, 7, 8, 7.5], "texture": "#41"},
				"east": {"uv": [7, 6, 9, 6.5], "texture": "#41"},
				"south": {"uv": [7, 6.5, 9, 7], "texture": "#41"},
				"west": {"uv": [4, 7.5, 6, 8], "texture": "#41"},
				"up": {"uv": [4, 8, 2, 6], "texture": "#41"},
				"down": {"uv": [8, 2, 6, 4], "texture": "#41"}
			}
		},
		{
			"from": [5.65, 8.9, 6],
			"to": [7.65, 9.9, 9],
			"rotation": {"angle": -45, "axis": "z", "origin": [0, 0, 0]},
			"faces": {
				"north": {"uv": [2.5, 8, 3.5, 8.5], "texture": "#41"},
				"east": {"uv": [1, 8, 2.5, 8.5], "texture": "#41"},
				"south": {"uv": [8, 2.5, 9, 3], "texture": "#41"},
				"west": {"uv": [8, 1, 9.5, 1.5], "texture": "#41"},
				"up": {"uv": [5, 7.5, 4, 6], "texture": "#41"},
				"down": {"uv": [7, 4, 6, 5.5], "texture": "#41"}
			}
		},
		{
			"from": [3.65, -2.4, 6],
			"to": [5.65, -1.4, 9],
			"rotation": {"angle": 45, "axis": "z", "origin": [0, 0, 0]},
			"faces": {
				"north": {"uv": [8, 3, 9, 3.5], "texture": "#41"},
				"east": {"uv": [8, 1.5, 9.5, 2], "texture": "#41"},
				"south": {"uv": [3.5, 8, 4.5, 8.5], "texture": "#41"},
				"west": {"uv": [8, 2, 9.5, 2.5], "texture": "#41"},
				"up": {"uv": [6, 7.5, 5, 6], "texture": "#41"},
				"down": {"uv": [7, 5.5, 6, 7], "texture": "#41"}
			}
		},
		{
			"from": [5, 1, 5],
			"to": [11, 4, 11],
			"faces": {
				"north": {"uv": [3, 0, 6, 1.5], "texture": "#41"},
				"east": {"uv": [3, 1.5, 6, 3], "texture": "#41"},
				"south": {"uv": [3, 3, 6, 4.5], "texture": "#41"},
				"west": {"uv": [3, 4.5, 6, 6], "texture": "#41"},
				"up": {"uv": [3, 3, 0, 0], "texture": "#41"},
				"down": {"uv": [3, 3, 0, 6], "texture": "#41"}
			}
		},
		{
			"from": [7, 3, 11],
			"to": [9, 4, 13],
			"faces": {
				"north": {"uv": [8, 3.5, 9, 4], "texture": "#41"},
				"east": {"uv": [4.5, 8, 5.5, 8.5], "texture": "#41"},
				"south": {"uv": [8, 7, 9, 7.5], "texture": "#41"},
				"west": {"uv": [8, 7.5, 9, 8], "texture": "#41"},
				"up": {"uv": [7, 8.5, 6, 7.5], "texture": "#41"},
				"down": {"uv": [8, 7.5, 7, 8.5], "texture": "#41"}
			}
		},
		{
			"from": [7, 1, 12],
			"to": [9, 3, 13],
			"faces": {
				"north": {"uv": [0, 8, 1, 9], "texture": "#41"},
				"east": {"uv": [5.5, 8, 6, 9], "texture": "#41"},
				"south": {"uv": [8, 0, 9, 1], "texture": "#41"},
				"west": {"uv": [8, 8, 8.5, 9], "texture": "#41"},
				"up": {"uv": [2, 9, 1, 8.5], "texture": "#41"},
				"down": {"uv": [3, 8.5, 2, 9], "texture": "#41"}
			}
		}
	],
	"display": {
		"thirdperson_righthand": {
			"translation": [0, 5, -3.5]
		},
		"thirdperson_lefthand": {
			"translation": [0, 5, -3.5],
			"scale": [-1, 1, 1]
		},
		"firstperson_righthand": {
			"translation": [0, 7.25, 0]
		},
		"firstperson_lefthand": {
			"translation": [0, 7.25, 0]
		},
		"ground": {
			"translation": [0, 4.5, 0]
		},
		"gui": {
			"rotation": [25, 45, 0],
			"translation": [0, 7.75, 0],
			"scale": [1.25, 1.25, 1.25]
		},
		"head": {
			"translation": [0, 19.5, 0],
			"scale": [1.65, 1.65, 1.65]
		},
		"fixed": {
			"translation": [0, 11, 0],
			"scale": [2, 2, 2]
		}
	},
	"groups": [
		{
			"name": "Wailmer Pail",
			"origin": [0, 0, 0],
			"color": 0,
			"children": [0, 1, 2, 3, 4, 5, 6]
		}
	]
}