{
	"format_version": "1.12.0",
	"minecraft:geometry": [
		{
			"description": {
				"identifier": "geometry.unknown",
				"texture_width": 64,
				"texture_height": 64,
				"visible_bounds_width": 3,
				"visible_bounds_height": 2.5,
				"visible_bounds_offset": [0, 0.75, 0]
			},
			"bones": [
				{
					"name": "meowth",
					"pivot": [0, 0, 0]
				},
				{
					"name": "body",
					"parent": "meowth",
					"pivot": [0, 7, 0],
					"cubes": [
						{"origin": [-2.5, 4, -2], "size": [5, 6, 4], "uv": [0, 14]}
					]
				},
				{
					"name": "head",
					"parent": "body",
					"pivot": [0, 10, 0],
					"cubes": [
						{"origin": [-5, 10, -3.5], "size": [10, 7, 7], "uv": [0, 0]},
						{"origin": [-2.5, 10.5, -3.55], "size": [5, 1, 0], "uv": [44, 6]},
						{"origin": [-1.5, 15, -4], "size": [3, 5, 1], "pivot": [0, 17.5, -3.5], "rotation": [-5, 0, 0], "uv": [24, 28]}
					]
				},
				{
					"name": "eyes",
					"parent": "head",
					"pivot": [0, 13.5, -3.525],
					"cubes": [
						{"origin": [-4.5, 12, -3.525], "size": [3, 3, 0], "inflate": 0.02, "pivot": [-3, 13.5, -3.525], "rotation": [0, 0, 2.5], "uv": [49, 0], "mirror": true},
						{"origin": [1.5, 12, -3.525], "size": [3, 3, 0], "inflate": 0.02, "pivot": [3, 13.5, -3.525], "rotation": [0, 0, -2.5], "uv": [49, 0]},
						{"origin": [-3.25, 12, -3.55], "size": [1, 3, 0], "inflate": 0.02, "pivot": [-3, 13.5, -3.55], "rotation": [0, 0, 2.5], "uv": [45, 0], "mirror": true},
						{"origin": [2.25, 12, -3.55], "size": [1, 3, 0], "inflate": 0.02, "pivot": [3, 13.5, -3.55], "rotation": [0, 0, -2.5], "uv": [45, 0]}
					]
				},
				{
					"name": "eyelids",
					"parent": "head",
					"pivot": [0, 13.5, -2.95],
					"cubes": [
						{"origin": [-4.5, 12, -3.45], "size": [3, 3, 1], "inflate": 0.04, "pivot": [-3, 13.5, -3.45], "rotation": [0, 0, 2.5], "uv": [39, 14], "mirror": true},
						{"origin": [1.5, 12, -3.45], "size": [3, 3, 1], "inflate": 0.04, "pivot": [3, 13.5, -3.45], "rotation": [0, 0, -2.5], "uv": [39, 14]}
					]
				},
				{
					"name": "ear_right",
					"parent": "head",
					"pivot": [-3.25, 16.25, 1],
					"rotation": [0, 10, -20],
					"cubes": [
						{"origin": [-5.25, 16.25, 0], "size": [4, 5, 2], "uv": [12, 25]}
					]
				},
				{
					"name": "ear_left",
					"parent": "head",
					"pivot": [3.25, 16.25, 1],
					"rotation": [0, -10, 20],
					"cubes": [
						{"origin": [1.25, 16.25, 0], "size": [4, 5, 2], "uv": [0, 24]}
					]
				},
				{
					"name": "head_whisker_right",
					"parent": "head",
					"pivot": [-2, 16.75, -2.5],
					"rotation": [0, 15, -5],
					"cubes": [
						{"origin": [-2.5, 16.75, -2.5], "size": [1, 7, 0], "uv": [22, 32]}
					]
				},
				{
					"name": "head_whisker_left",
					"parent": "head",
					"pivot": [2, 16.75, -2.5],
					"rotation": [0, -15, 5],
					"cubes": [
						{"origin": [1.5, 16.75, -2.5], "size": [1, 7, 0], "uv": [20, 32]}
					]
				},
				{
					"name": "whisker_top_right",
					"parent": "head",
					"pivot": [-5, 15, -3],
					"rotation": [0, 10, 12.5],
					"cubes": [
						{"origin": [-10, 14.5, -3], "size": [5, 1, 0], "uv": [32, 31]}
					]
				},
				{
					"name": "whisker_top_left",
					"parent": "head",
					"pivot": [5, 15, -3],
					"rotation": [0, -10, -12.5],
					"cubes": [
						{"origin": [5, 14.5, -3], "size": [5, 1, 0], "uv": [32, 30]}
					]
				},
				{
					"name": "whisker_bottom_right",
					"parent": "head",
					"pivot": [-5, 12.5, -2.75],
					"rotation": [0, 7.5, -5],
					"cubes": [
						{"origin": [-10, 12, -2.75], "size": [5, 1, 0], "uv": [32, 29]}
					]
				},
				{
					"name": "whisker_bottom_left",
					"parent": "head",
					"pivot": [5, 12.5, -2.75],
					"rotation": [0, -7.5, 5],
					"cubes": [
						{"origin": [5, 12, -2.75], "size": [5, 1, 0], "uv": [31, 28]}
					]
				},
				{
					"name": "arm_right",
					"parent": "body",
					"pivot": [-2.5, 9.75, 0],
					"cubes": [
						{"origin": [-6.5, 8.75, -1], "size": [4, 1, 2], "uv": [27, 0]}
					]
				},
				{
					"name": "forearm_right",
					"parent": "arm_right",
					"pivot": [-6.5, 9.25, 1],
					"cubes": [
						{"origin": [-9.5, 8.75, -1], "size": [3, 1, 2], "uv": [10, 32]}
					]
				},
				{
					"name": "hand_right",
					"parent": "forearm_right",
					"pivot": [-9.5, 9.25, 0],
					"cubes": [
						{"origin": [-11.5, 8.75, -1.5], "size": [2, 1, 3], "uv": [0, 31]}
					]
				},
				{
					"name": "arm_left",
					"parent": "body",
					"pivot": [2.5, 9.75, 0],
					"cubes": [
						{"origin": [2.5, 8.75, -1], "size": [4, 1, 2], "uv": [24, 25]}
					]
				},
				{
					"name": "forearm_left",
					"parent": "arm_left",
					"pivot": [6.5, 9.25, 1],
					"cubes": [
						{"origin": [6.5, 8.75, -1], "size": [3, 1, 2], "uv": [29, 22]}
					]
				},
				{
					"name": "hand_left",
					"parent": "forearm_left",
					"pivot": [9.5, 9.25, 0],
					"cubes": [
						{"origin": [9.5, 8.75, -1.5], "size": [2, 1, 3], "uv": [27, 3]}
					]
				},
				{
					"name": "leg_right",
					"parent": "body",
					"pivot": [-1.75, 5, 0.25],
					"cubes": [
						{"origin": [-2.25, 1, -0.75], "size": [1, 4, 2], "uv": [22, 14]}
					]
				},
				{
					"name": "foot_right",
					"parent": "leg_right",
					"pivot": [-1.75, 1, 0.25],
					"cubes": [
						{"origin": [-2.75, 0, -2.25], "size": [2, 1, 4], "uv": [0, 36]}
					]
				},
				{
					"name": "foot_right_end",
					"parent": "foot_right",
					"pivot": [-1.75, 0.5, -2.25],
					"cubes": [
						{"origin": [-2.75, 0, -5.25], "size": [2, 1, 3], "uv": [45, 9]}
					]
				},
				{
					"name": "leg_left",
					"parent": "body",
					"pivot": [1.75, 5, 0.25],
					"cubes": [
						{"origin": [1.25, 1, -0.75], "size": [1, 4, 2], "uv": [0, 0]}
					]
				},
				{
					"name": "foot_left",
					"parent": "leg_left",
					"pivot": [1.75, 1, 0.25],
					"cubes": [
						{"origin": [0.75, 0, -2.25], "size": [2, 1, 4], "uv": [0, 41]}
					]
				},
				{
					"name": "foot_left_end",
					"parent": "foot_left",
					"pivot": [1.75, 0.5, -2.25],
					"cubes": [
						{"origin": [0.75, 0, -5.25], "size": [2, 1, 3], "uv": [35, 9]}
					]
				},
				{
					"name": "tail1",
					"parent": "body",
					"pivot": [0, 5.25, 2],
					"cubes": [
						{"origin": [0, 4.75, 1.5], "size": [0, 1, 4], "uv": [22, 19]}
					]
				},
				{
					"name": "tail2",
					"parent": "tail1",
					"pivot": [0, 4.75, 5.5],
					"cubes": [
						{"origin": [0, 4.75, 5.5], "size": [0, 1, 4], "inflate": 0.01, "uv": [22, 18]}
					]
				},
				{
					"name": "tail3",
					"parent": "tail2",
					"pivot": [0, 4.75, 9.5],
					"cubes": [
						{"origin": [0, 4.75, 9.5], "size": [0, 3, 4], "uv": [14, 10]}
					]
				}
			]
		}
	]
}