{
	"format_version": "1.8.0",
	"animations": {
		"animation.charmander.ground_idle": {
			"loop": true,
			"bones": {
				"torso": {
					"position": [0, 0, 0]
				}
			}
		},
		"animation.charmander.ground_walk": {
			"loop": true,
			"bones": {
				"torso": {
					"position": [0, 0, 0]
				},
				"shield_left": {
					"rotation": [0, 70, 0],
					"position": [-1.5, 0.5, -5.5]
				},
				"shield_right": {
					"rotation": [0, -70, 0],
					"position": [1.75, 0.5, -5.5]
				}
			}
		},
		"animation.charmander.battle_idle": {
			"loop": true,
			"bones": {
				"falinks": {
					"position": [0, 0, 5]
				},
				"body": {
					"position": [0, 0, 9]
				},
				"body2": {
					"position": [7, 0, 10]
				},
				"body3": {
					"position": [-7, 0, -1]
				},
				"torso3": {
					"position": [0, 0, 0]
				},
				"body4": {
					"position": [-14, 0, 0]
				},
				"body5": {
					"position": [0, 0, -11]
				},
				"body6": {
					"position": [14, 0, -22]
				}
			}
		},
		"animation.falinks.blink": {
			"animation_length": 0.16667,
			"bones": {
				"eyelid_left": {
					"position": {
						"0.0": [0, 0, -0.1],
						"0.125": [0, 0, -0.1],
						"0.1667": [0, 0, 0]
					}
				},
				"eyelid_right": {
					"position": {
						"0.0": [0, 0, -0.1],
						"0.125": [0, 0, -0.1],
						"0.1667": [0, 0, 0]
					}
				}
			}
		},
		"animation.falinks.blink2": {
			"animation_length": 0.16667,
			"bones": {
				"eyelid_left2": {
					"position": {
						"0.0": [0, 0, -0.1],
						"0.125": [0, 0, -0.1],
						"0.1667": [0, 0, 0]
					}
				},
				"eyelid_right2": {
					"position": {
						"0.0": [0, 0, -0.1],
						"0.125": [0, 0, -0.1],
						"0.1667": [0, 0, 0]
					}
				}
			}
		},
		"animation.falinks.blink3": {
			"animation_length": 0.16667,
			"bones": {
				"eyelid_left3": {
					"position": {
						"0.0": [0, 0, -0.1],
						"0.125": [0, 0, -0.1],
						"0.1667": [0, 0, 0]
					}
				},
				"eyelid_right3": {
					"position": {
						"0.0": [0, 0, -0.1],
						"0.125": [0, 0, -0.1],
						"0.1667": [0, 0, 0]
					}
				}
			}
		},
		"animation.falinks.blink4": {
			"animation_length": 0.16667,
			"bones": {
				"eyelid_left4": {
					"position": {
						"0.0": [0, 0, -0.1],
						"0.125": [0, 0, -0.1],
						"0.1667": [0, 0, 0]
					}
				},
				"eyelid_right4": {
					"position": {
						"0.0": [0, 0, -0.1],
						"0.125": [0, 0, -0.1],
						"0.1667": [0, 0, 0]
					}
				}
			}
		},
		"animation.falinks.blink5": {
			"animation_length": 0.16667,
			"bones": {
				"eyelid_left5": {
					"position": {
						"0.0": [0, 0, -0.1],
						"0.125": [0, 0, -0.1],
						"0.1667": [0, 0, 0]
					}
				},
				"eyelid_right5": {
					"position": {
						"0.0": [0, 0, -0.1],
						"0.125": [0, 0, -0.1],
						"0.1667": [0, 0, 0]
					}
				}
			}
		},
		"animation.falinks.blink6": {
			"animation_length": 0.16667,
			"bones": {
				"eyelid_left6": {
					"position": {
						"0.0": [0, 0, -0.1],
						"0.125": [0, 0, -0.1],
						"0.1667": [0, 0, 0]
					}
				},
				"eyelid_right6": {
					"position": {
						"0.0": [0, 0, -0.1],
						"0.125": [0, 0, -0.1],
						"0.1667": [0, 0, 0]
					}
				}
			}
		}
	}
}