{
	"format_version": "1.8.0",
	"animations": {
		"animation.carnivine.pose": {
			"animation_length": 0.16667,
			"bones": {
				"head": {
					"rotation": [12.5, 0, 0]
				},
				"jaw": {
					"rotation": [-5, 0, 0]
				},
				"torso": {
					"rotation": [10, 0, 0]
				},
				"arm_left": {
					"rotation": [0, 0, 45]
				},
				"arm_left2": {
					"rotation": [0, 0, -20]
				},
				"arm_left3": {
					"rotation": [0, 0, -35]
				},
				"arm_right": {
					"rotation": [0, 0, -60]
				},
				"arm_right2": {
					"rotation": [0, 0, 42.5]
				},
				"arm_right3": {
					"rotation": [0, 0, 30]
				},
				"tentacle_front2": {
					"rotation": [15, 0, 0]
				},
				"tentacle_front3": {
					"rotation": [15, 0, 0]
				},
				"tentacle_front4": {
					"rotation": [15, 0, 0]
				},
				"tentacle_front_left2": {
					"rotation": [15, 0, 0]
				},
				"tentacle_front_left3": {
					"rotation": [15, 0, 0]
				},
				"tentacle_front_left4": {
					"rotation": [15, 0, 0]
				},
				"tentacle_back_left2": {
					"rotation": [-15, 0, 0]
				},
				"tentacle_back_left3": {
					"rotation": [-15, 0, 0]
				},
				"tentacle_back_left4": {
					"rotation": [-15, 0, 0]
				},
				"tentacle_front_right2": {
					"rotation": [15, 0, 0]
				},
				"tentacle_front_right3": {
					"rotation": [15, 0, 0]
				},
				"tentacle_front_right4": {
					"rotation": [15, 0, 0]
				},
				"tentacle_back_right2": {
					"rotation": [-15, 0, 0]
				},
				"tentacle_back_right3": {
					"rotation": [-15, 0, 0]
				},
				"tentacle_back_right4": {
					"rotation": [-15, 0, 0]
				},
				"tentacle_back2": {
					"rotation": [-15, 0, 0]
				},
				"tentacle_back3": {
					"rotation": [-15, 0, 0]
				},
				"tentacle_back4": {
					"rotation": [-15, 0, 0]
				}
			}
		},
		"animation.carnivine.blink": {
			"animation_length": 0.16667,
			"bones": {
				"eyelid_left": {
					"position": {
						"0.0": [0, 0.1, 0],
						"0.125": [0, 0.1, 0],
						"0.1667": [0, 0, 0]
					}
				},
				"eyelid_right": {
					"position": {
						"0.0": [0, 0.1, 0],
						"0.125": [0, 0.1, 0],
						"0.1667": [0, 0, 0]
					}
				}
			}
		},
		"animation.carnivine.cry": {
			"animation_length": 1.5,
			"bones": {
				"neck": {
					"rotation": {
						"0.0": [0, 0, 0],
						"0.25": [10, 0, 0],
						"1.25": [10, 0, 0],
						"1.5": [0, 0, 0]
					}
				},
				"head": {
					"rotation": {
						"0.0": [0, 0, 0],
						"0.25": [-15, 0, 0],
						"1.25": [-15, 0, 0],
						"1.5": [0, 0, 0]
					}
				},
				"jaw": {
					"rotation": {
						"0.0": [0, 0, 0],
						"0.25": [-32.5, 0, 0],
						"1.25": [-32.5, 0, 0],
						"1.5": [0, 0, 0]
					}
				}
			}
		}
	}
}