{
	"credit": "Made with Blockbench by dhi_holo @holo_modeller",
	"texture_size": [32, 32],
	"textures": {
		"0": "block/oak_planks",
		"1": "Pokemon Cobbled:block/bench_arms_darker",
		"particle": "block/oak_planks"
	},
	"elements": [
		{
			"from": [1, 0, 2],
			"to": [1, 10, 14],
			"faces": {
				"north": {"uv": [0, 0, 0, 12], "texture": "#1"},
				"east": {"uv": [12, 2, 0, 12], "texture": "#1"},
				"south": {"uv": [0, 0, 0, 12], "texture": "#1"},
				"west": {"uv": [0, 2, 12, 12], "texture": "#1"},
				"up": {"uv": [0, 12, 0, 0], "texture": "#1"},
				"down": {"uv": [0, 0, 0, 12], "texture": "#1"}
			}
		},
		{
			"from": [0, 10, 4],
			"to": [2, 10, 13],
			"faces": {
				"up": {"uv": [12, 9, 14, 0], "texture": "#1"},
				"down": {"uv": [14, 0, 12, 9], "texture": "#1"}
			}
		},
		{
			"from": [0, 5, 4],
			"to": [2, 10, 4],
			"faces": {
				"north": {"uv": [16, 0, 14, 5], "texture": "#1"},
				"south": {"uv": [14, 0, 16, 5], "texture": "#1"}
			}
		},
		{
			"from": [0, 10, 13.5],
			"to": [2, 15, 13.5],
			"faces": {
				"north": {"uv": [16, 0, 14, 5], "texture": "#1"},
				"south": {"uv": [14, 0, 16, 5], "texture": "#1"}
			}
		},
		{
			"from": [15, 0, 2],
			"to": [15, 10, 14],
			"faces": {
				"north": {"uv": [0, 0, 0, 6], "texture": "#missing"},
				"east": {"uv": [12, 2, 0, 12], "texture": "#1"},
				"south": {"uv": [0, 0, 0, 6], "texture": "#missing"},
				"west": {"uv": [0, 2, 12, 12], "texture": "#1"},
				"up": {"uv": [0, 0, 0, 6], "texture": "#missing"},
				"down": {"uv": [0, 0, 0, 6], "texture": "#missing"}
			}
		},
		{
			"from": [14, 10, 4],
			"to": [16, 10, 13],
			"faces": {
				"up": {"uv": [14, 9, 12, 0], "texture": "#1"},
				"down": {"uv": [12, 0, 14, 9], "texture": "#1"}
			}
		},
		{
			"from": [14, 5, 4],
			"to": [16, 10, 4],
			"faces": {
				"north": {"uv": [14, 0, 16, 5], "texture": "#1"},
				"south": {"uv": [16, 0, 14, 5], "texture": "#1"}
			}
		},
		{
			"from": [14, 10, 13.5],
			"to": [16, 15, 13.5],
			"faces": {
				"north": {"uv": [14, 0, 16, 5], "texture": "#1"},
				"south": {"uv": [16, 0, 14, 5], "texture": "#1"}
			}
		},
		{
			"from": [0, 5, 10],
			"to": [16, 6, 13],
			"faces": {
				"north": {"uv": [0, 8, 16, 9], "rotation": 180, "texture": "#0"},
				"east": {"uv": [15, 8, 16, 11], "rotation": 90, "texture": "#0"},
				"south": {"uv": [0, 10, 16, 11], "texture": "#0"},
				"west": {"uv": [0, 8, 1, 11], "rotation": 270, "texture": "#0"},
				"up": {"uv": [0, 8, 16, 11], "texture": "#0"},
				"down": {"uv": [0, 11, 16, 8], "texture": "#0"}
			}
		},
		{
			"from": [0, 5, 6],
			"to": [16, 6, 9],
			"faces": {
				"north": {"uv": [0, 4, 16, 5], "rotation": 180, "texture": "#0"},
				"east": {"uv": [15, 4, 16, 7], "rotation": 90, "texture": "#0"},
				"south": {"uv": [0, 6, 16, 7], "texture": "#0"},
				"west": {"uv": [0, 4, 1, 7], "rotation": 270, "texture": "#0"},
				"up": {"uv": [0, 4, 16, 7], "texture": "#0"},
				"down": {"uv": [0, 7, 16, 4], "texture": "#0"}
			}
		},
		{
			"from": [0, 5, 2],
			"to": [16, 6, 5],
			"rotation": {"angle": -22.5, "axis": "x", "origin": [8, 5.5, 5]},
			"faces": {
				"north": {"uv": [0, 0, 16, 1], "rotation": 180, "texture": "#0"},
				"east": {"uv": [15, 0, 16, 3], "rotation": 90, "texture": "#0"},
				"south": {"uv": [0, 2, 16, 3], "texture": "#0"},
				"west": {"uv": [0, 0, 1, 3], "rotation": 270, "texture": "#0"},
				"up": {"uv": [0, 0, 16, 3], "texture": "#0"},
				"down": {"uv": [0, 3, 16, 0], "texture": "#0"}
			}
		},
		{
			"from": [0, 7, 13],
			"to": [16, 10, 14],
			"faces": {
				"north": {"uv": [0, 0, 16, 3], "rotation": 180, "texture": "#0"},
				"east": {"uv": [15, 0, 16, 3], "rotation": 180, "texture": "#0"},
				"south": {"uv": [0, 3, 16, 0], "texture": "#0"},
				"west": {"uv": [0, 0, 1, 3], "rotation": 180, "texture": "#0"},
				"up": {"uv": [0, 2, 16, 3], "texture": "#0"},
				"down": {"uv": [0, 0, 16, 1], "texture": "#0"}
			}
		},
		{
			"from": [0, 11, 13],
			"to": [16, 14, 14],
			"faces": {
				"north": {"uv": [0, 12, 16, 15], "rotation": 180, "texture": "#0"},
				"east": {"uv": [15, 12, 16, 15], "rotation": 180, "texture": "#0"},
				"south": {"uv": [0, 15, 16, 12], "texture": "#0"},
				"west": {"uv": [0, 12, 1, 15], "rotation": 180, "texture": "#0"},
				"up": {"uv": [0, 14, 16, 15], "texture": "#0"},
				"down": {"uv": [0, 12, 16, 13], "texture": "#0"}
			}
		},
		{
			"from": [0, 15, 13],
			"to": [16, 18, 14],
			"rotation": {"angle": 22.5, "axis": "x", "origin": [8, 15, 13.5]},
			"faces": {
				"north": {"uv": [0, 8, 16, 11], "rotation": 180, "texture": "#0"},
				"east": {"uv": [15, 8, 16, 11], "rotation": 180, "texture": "#0"},
				"south": {"uv": [0, 11, 16, 8], "texture": "#0"},
				"west": {"uv": [0, 8, 1, 11], "rotation": 180, "texture": "#0"},
				"up": {"uv": [0, 10, 16, 11], "texture": "#0"},
				"down": {"uv": [0, 8, 16, 9], "texture": "#0"}
			}
		}
	],
	"groups": [
		{
			"name": "west",
			"origin": [0, 0, 0],
			"color": 0,
			"children": [0, 1, 2, 3]
		},
		{
			"name": "east",
			"origin": [0, 0, 0],
			"color": 0,
			"children": [4, 5, 6, 7]
		},
		{
			"name": "seat",
			"origin": [0, 0, 0],
			"color": 0,
			"children": [8, 9, 10]
		},
		{
			"name": "back",
			"origin": [0, 0, 0],
			"color": 0,
			"children": [11, 12, 13]
		}
	]
}