{
	"format_version": "1.12.0",
	"minecraft:geometry": [
		{
			"description": {
				"identifier": "geometry.unknown",
				"texture_width": 256,
				"texture_height": 128,
				"visible_bounds_width": 7,
				"visible_bounds_height": 5.5,
				"visible_bounds_offset": [0, 2.25, 0]
			},
			"bones": [
				{
					"name": "torterra",
					"pivot": [0, 0, 0]
				},
				{
					"name": "body",
					"parent": "torterra",
					"pivot": [0, 14, 0]
				},
				{
					"name": "torso",
					"parent": "body",
					"pivot": [0, 13, 0],
					"cubes": [
						{"origin": [6.5, 26.5, -13], "size": [0, 3, 18], "inflate": 0.001, "pivot": [6.5, 26.5, -4], "rotation": [0, 0, 12.5], "uv": [0, 3]},
						{"origin": [-10.5, 7, -16], "size": [21, 12, 31], "uv": [0, 80]},
						{"origin": [-12.5, 15.5, -15], "size": [25, 4, 33], "uv": [0, 43]},
						{"origin": [-12.5, 15.5, -23], "size": [25, 4, 8], "inflate": 0.001, "pivot": [0, 15.5, -15], "rotation": [-20, 0, 0], "uv": [113, 35]},
						{"origin": [-11.5, 19.5, -19.5], "size": [23, 7, 36], "inflate": 0.001, "uv": [0, 0]},
						{"origin": [8.5, 22.5, 5], "size": [6, 6, 0], "inflate": 0.001, "uv": [0, 50]},
						{"origin": [-1.5, 26.5, 6], "size": [6, 2, 0], "inflate": 0.001, "pivot": [4, 25.5, 6], "rotation": [0, 42.5, 0], "uv": [19, 50]}
					]
				},
				{
					"name": "tree",
					"parent": "torso",
					"pivot": [5.5, 25.25, 5.5],
					"rotation": [-12.5, 0, 12.5],
					"cubes": [
						{"origin": [3.5, 24.5, 2.5], "size": [5, 14, 5], "inflate": 0.001, "uv": [73, 80]},
						{"origin": [4.5, 50.5, -1.5], "size": [3, 5, 13], "inflate": 0.001, "uv": [0, 43]},
						{"origin": [-0.5, 45.5, -1.5], "size": [13, 5, 13], "inflate": 0.001, "uv": [122, 81]},
						{"origin": [12.5, 37.5, -1.5], "size": [5, 8, 13], "inflate": 0.001, "uv": [0, 0]},
						{"origin": [-5.5, 37.5, -6.5], "size": [5, 8, 18], "inflate": 0.001, "uv": [122, 55]},
						{"origin": [-0.5, 37.5, -6.5], "size": [13, 8, 23], "inflate": 0.001, "uv": [73, 80]},
						{"origin": [7.5, 50.5, 3.5], "size": [5, 5, 3], "inflate": 0.001, "uv": [141, 47]},
						{"origin": [-0.5, 50.5, 3.5], "size": [5, 5, 3], "inflate": 0.001, "uv": [106, 114]},
						{"origin": [-5.5, 42.5, 11.5], "size": [5, 3, 5], "inflate": 0.001, "uv": [83, 54]},
						{"origin": [12.5, 37.5, 11.5], "size": [5, 3, 5], "inflate": 0.001, "uv": [113, 54]}
					]
				},
				{
					"name": "bone",
					"parent": "tree",
					"pivot": [1, 12.5, -6.5],
					"cubes": [
						{"origin": [13.5, 36.5, -2.5], "size": [5, 10, 15], "inflate": 0.001, "uv": [176, 0]},
						{"origin": [-1.5, 36.5, -7.5], "size": [15, 10, 25], "inflate": 0.001, "uv": [82, 0]},
						{"origin": [-1.5, 46.5, -2.5], "size": [15, 5, 15], "inflate": 0.001, "uv": [196, 40]},
						{"origin": [3.5, 51.5, -2.5], "size": [5, 5, 15], "inflate": 0.001, "uv": [216, 0]},
						{"origin": [8.5, 51.5, 2.5], "size": [5, 5, 5], "inflate": 0.001, "uv": [145, 99]},
						{"origin": [13.5, 36.5, 12.5], "size": [5, 5, 5], "inflate": 0.001, "uv": [201, 0]},
						{"origin": [-6.5, 36.5, -7.5], "size": [5, 10, 20], "inflate": 0.001, "uv": [83, 43]},
						{"origin": [-6.5, 41.5, 12.5], "size": [5, 5, 5], "inflate": 0.001, "uv": [137, 15]},
						{"origin": [-1.5, 51.5, 2.5], "size": [5, 5, 5], "inflate": 0.001, "uv": [183, 43]}
					]
				},
				{
					"name": "spike3",
					"parent": "torso",
					"pivot": [-5, 26.5, -10],
					"rotation": [0, 0, -27.5],
					"cubes": [
						{"origin": [-10.62132, 24.5, -9.37868], "size": [5, 7, 5], "inflate": 0.001, "pivot": [-5, 26.5, -10], "rotation": [0, -55, 0], "uv": [82, 0]},
						{"origin": [-9.62132, 31.5, -8.37868], "size": [3, 4, 3], "inflate": 0.001, "pivot": [-5, 26.5, -10], "rotation": [0, -55, 0], "uv": [196, 92]}
					]
				},
				{
					"name": "spike2",
					"parent": "torso",
					"pivot": [-5, 26.5, -1],
					"rotation": [0, 0, -22.5],
					"cubes": [
						{"origin": [-10.62132, 24.5, -2.37868], "size": [7, 9, 7], "inflate": 0.001, "pivot": [-5, 26.5, -1], "rotation": [0, -45, 0], "uv": [0, 80]},
						{"origin": [-9.62132, 33.5, -1.37868], "size": [5, 6, 5], "inflate": 0.001, "pivot": [-5, 26.5, -1], "rotation": [0, -45, 0], "uv": [83, 43]}
					]
				},
				{
					"name": "spike",
					"parent": "torso",
					"pivot": [-5, 26.5, 8],
					"rotation": [0, 0, -27.5],
					"cubes": [
						{"origin": [-10.62132, 24.5, 8.62132], "size": [5, 7, 5], "inflate": 0.001, "pivot": [-5, 26.5, 8], "rotation": [0, -35, 0], "uv": [82, 12]},
						{"origin": [-9.62132, 31.5, 9.62132], "size": [3, 4, 3], "inflate": 0.001, "pivot": [-5, 26.5, 8], "rotation": [0, -35, 0], "uv": [138, 120]}
					]
				},
				{
					"name": "head",
					"parent": "torso",
					"pivot": [0, 12.5, -16],
					"cubes": [
						{"origin": [-4.5, 8.5, -22.5], "size": [9, 3, 7], "inflate": 0.001, "uv": [0, 24]},
						{"origin": [4.5, 10.5, -27.5], "size": [0, 1, 5], "uv": [0, 6]},
						{"origin": [-4.5, 10.5, -27.5], "size": [0, 1, 5], "uv": [0, 7]},
						{"origin": [-4.5, 10.5, -27.5], "size": [9, 1, 0], "uv": [18, 34]},
						{"origin": [-2.5, 10, -30.5], "size": [5, 6, 3], "uv": [125, 114]},
						{"origin": [-4.5, 11.5, -27.5], "size": [9, 6, 12], "inflate": 0.001, "uv": [174, 74]},
						{"origin": [4.5, 9.5, -21.75], "size": [4, 4, 5], "uv": [150, 64]},
						{"origin": [8.5, 10.5, -20.75], "size": [4, 2, 4], "uv": [157, 15]},
						{"origin": [3.51, 11.5, -27], "size": [1, 3, 5], "uv": [23, 0]},
						{"origin": [-16.5, 11.5, -19.75], "size": [4, 0, 3], "uv": [0, 8]},
						{"origin": [-12.5, 10.5, -20.75], "size": [4, 2, 4], "uv": [141, 114]},
						{"origin": [12.5, 11.5, -19.75], "size": [4, 0, 3], "uv": [20, 8]},
						{"origin": [-8.5, 9.5, -21.75], "size": [4, 4, 5], "uv": [204, 74]},
						{"origin": [-4.51, 11.5, -27], "size": [1, 3, 5], "uv": [0, 0]}
					]
				},
				{
					"name": "jaw",
					"parent": "head",
					"pivot": [0, 11, -22],
					"cubes": [
						{"origin": [-4.5, 10.5, -27.5], "size": [0, 1, 5], "uv": [23, 7]},
						{"origin": [4.5, 10.5, -27.5], "size": [0, 1, 5], "uv": [23, 6]},
						{"origin": [-4.5, 8.5, -27.5], "size": [9, 2, 5], "uv": [113, 47]},
						{"origin": [-4.5, 10.5, -27.5], "size": [9, 1, 0], "uv": [0, 34]}
					]
				},
				{
					"name": "tail",
					"parent": "torso",
					"pivot": [0, 12, 15],
					"cubes": [
						{"origin": [-4.5, 8, 15], "size": [9, 8, 8], "uv": [208, 20]}
					]
				},
				{
					"name": "tail2",
					"parent": "tail",
					"pivot": [0, 12, 22.5],
					"cubes": [
						{"origin": [-3.5, 9, 22], "size": [7, 6, 9], "uv": [0, 61]}
					]
				},
				{
					"name": "tail3",
					"parent": "tail2",
					"pivot": [0, 12, 30.5],
					"cubes": [
						{"origin": [-2.5, 10, 30], "size": [5, 4, 9], "uv": [0, 96]}
					]
				},
				{
					"name": "leg_front_left",
					"parent": "body",
					"pivot": [8.20214, 10.36054, -10],
					"cubes": [
						{"origin": [6.5, 5.5, -14.5], "size": [8, 9, 8], "pivot": [14.5, 5.5, -10.5], "rotation": [0, 0, -20], "uv": [150, 47]}
					]
				},
				{
					"name": "foot_front_left",
					"parent": "leg_front_left",
					"pivot": [10.5, 5.5, -12.5],
					"cubes": [
						{"origin": [6, 0, -15], "size": [9, 6, 9], "uv": [163, 111]},
						{"origin": [15, 0, -13], "size": [1, 3, 2], "uv": [0, 80]},
						{"origin": [5, 0, -13], "size": [1, 3, 2], "uv": [27, 64]},
						{"origin": [8.5, 0, -17], "size": [4, 5, 2], "uv": [171, 74]},
						{"origin": [8.5, 0, -6], "size": [4, 5, 2], "uv": [219, 8]}
					]
				},
				{
					"name": "leg_back_left",
					"parent": "body",
					"pivot": [8.20214, 10.36054, 9.5],
					"cubes": [
						{"origin": [6.5, 5.5, 6], "size": [8, 9, 8], "pivot": [14.5, 5.5, 9], "rotation": [0, 0, -20], "uv": [172, 92]}
					]
				},
				{
					"name": "foot_back_left",
					"parent": "leg_back_left",
					"pivot": [10.5, 5.5, 7],
					"cubes": [
						{"origin": [6, 0, 5.5], "size": [9, 6, 9], "uv": [137, 0]},
						{"origin": [15, 0, 7.5], "size": [1, 3, 2], "uv": [23, 61]},
						{"origin": [5, 0, 7.5], "size": [1, 3, 2], "uv": [0, 61]},
						{"origin": [8.5, 0, 3.5], "size": [4, 5, 2], "uv": [176, 7]},
						{"origin": [8.5, 0, 14.5], "size": [4, 5, 2], "uv": [176, 0]}
					]
				},
				{
					"name": "leg_front_right",
					"parent": "body",
					"pivot": [-8.20214, 10.36054, -10],
					"cubes": [
						{"origin": [-14.5, 5.5, -14.5], "size": [8, 9, 8], "pivot": [-14.5, 5.5, -10.5], "rotation": [0, 0, 20], "uv": [176, 25]}
					]
				},
				{
					"name": "foot_front_right",
					"parent": "leg_front_right",
					"pivot": [-10.5, 5.5, -12.5],
					"cubes": [
						{"origin": [-15, 0, -15], "size": [9, 6, 9], "uv": [220, 63]},
						{"origin": [-16, 0, -13], "size": [1, 3, 2], "uv": [30, 0]},
						{"origin": [-6, 0, -13], "size": [1, 3, 2], "uv": [25, 24]},
						{"origin": [-12.5, 0, -17], "size": [4, 5, 2], "uv": [122, 81]},
						{"origin": [-12.5, 0, -6], "size": [4, 5, 2], "uv": [19, 96]}
					]
				},
				{
					"name": "leg_back_right",
					"parent": "body",
					"pivot": [-8.20214, 10.36054, 9.5],
					"cubes": [
						{"origin": [-14.5, 5.5, 6], "size": [8, 9, 8], "pivot": [-14.5, 5.5, 9], "rotation": [0, 0, 20], "uv": [208, 89]}
					]
				},
				{
					"name": "foot_back_right",
					"parent": "leg_back_right",
					"pivot": [-10.5, 5.5, 7],
					"cubes": [
						{"origin": [-15, 0, 5.5], "size": [9, 6, 9], "uv": [220, 107]},
						{"origin": [-16, 0, 7.5], "size": [1, 3, 2], "uv": [0, 24]},
						{"origin": [-6, 0, 7.5], "size": [1, 3, 2], "uv": [7, 0]},
						{"origin": [-12.5, 0, 3.5], "size": [4, 5, 2], "uv": [19, 43]},
						{"origin": [-12.5, 0, 14.5], "size": [4, 5, 2], "uv": [0, 43]}
					]
				},
				{
					"name": "venusaur",
					"pivot": [0, 0, 0]
				},
				{
					"name": "body2",
					"parent": "venusaur",
					"pivot": [0, 6.74976, 3.5109]
				},
				{
					"name": "torso2",
					"parent": "body2",
					"pivot": [0, 6.7498, 3.5109]
				},
				{
					"name": "head2",
					"parent": "torso2",
					"pivot": [0, 6.75, -2.5]
				},
				{
					"name": "jaw2",
					"parent": "head2",
					"pivot": [0, 5.25, -8.25]
				},
				{
					"name": "eyes",
					"parent": "head2",
					"pivot": [0, 9, -11]
				},
				{
					"name": "eye_right",
					"parent": "eyes",
					"pivot": [-4.25, 8.68301, -11.501]
				},
				{
					"name": "eyelid_right",
					"parent": "eye_right",
					"pivot": [-4.25, 8.68301, -10.905]
				},
				{
					"name": "eye_left",
					"parent": "eyes",
					"pivot": [4.25, 8.68301, -11.505]
				},
				{
					"name": "eyelid_left",
					"parent": "eye_left",
					"pivot": [4.25, 8.68301, -10.905]
				},
				{
					"name": "ears",
					"parent": "head2",
					"pivot": [0, 10.25, -7]
				},
				{
					"name": "ear_right",
					"parent": "ears",
					"pivot": [-3.75, 10.75, -8.25],
					"rotation": [0, -45, -20]
				},
				{
					"name": "ear_left",
					"parent": "ears",
					"pivot": [3.75, 10.5, -8.25],
					"rotation": [0, 45, 20]
				},
				{
					"name": "leaves",
					"parent": "torso2",
					"pivot": [0, 11, 3.5]
				},
				{
					"name": "leaf_front1",
					"parent": "leaves",
					"pivot": [0.5, 10.5, -1.5],
					"rotation": [-20, 0, 0]
				},
				{
					"name": "leaf_front2",
					"parent": "leaf_front1",
					"pivot": [0.5, 10.5, -4.5]
				},
				{
					"name": "leaf_front3",
					"parent": "leaf_front2",
					"pivot": [0, 10.5, -9.5]
				},
				{
					"name": "leaf_front4",
					"parent": "leaf_front3",
					"pivot": [0, 10.5, -12.5]
				},
				{
					"name": "leaf_right",
					"parent": "leaves",
					"pivot": [-2.5, 10.25, 1],
					"rotation": [-5, 0, 0]
				},
				{
					"name": "leaf_right2",
					"parent": "leaf_right",
					"pivot": [-5.5, 10.25, 1]
				},
				{
					"name": "leaf_right3",
					"parent": "leaf_right2",
					"pivot": [-9.5, 10.25, 1]
				},
				{
					"name": "leaf_right4",
					"parent": "leaf_right3",
					"pivot": [-13.5, 10.25, 1]
				},
				{
					"name": "leaf_left",
					"parent": "leaves",
					"pivot": [2.5, 10.25, 1],
					"rotation": [-5, 0, 0]
				},
				{
					"name": "leaf_left2",
					"parent": "leaf_left",
					"pivot": [5.5, 10.25, 1]
				},
				{
					"name": "leaf_left3",
					"parent": "leaf_left2",
					"pivot": [9.5, 10.25, 1]
				},
				{
					"name": "leaf_left4",
					"parent": "leaf_left3",
					"pivot": [13.5, 10.25, 1]
				},
				{
					"name": "leaf_back",
					"parent": "leaves",
					"pivot": [0, 10.05, 3.5],
					"rotation": [-5, 0, 0]
				},
				{
					"name": "leaf_back2",
					"parent": "leaf_back",
					"pivot": [0, 10.05, 6.5]
				},
				{
					"name": "leaf_back3",
					"parent": "leaf_back2",
					"pivot": [0, 10.05, 11.5]
				},
				{
					"name": "leaf_back4",
					"parent": "leaf_back3",
					"pivot": [0, 10.05, 14.5]
				},
				{
					"name": "flower",
					"parent": "torso2",
					"pivot": [0, 10, 1],
					"rotation": [-2.5, 0, 0]
				},
				{
					"name": "petal_left_back0",
					"parent": "flower",
					"pivot": [0, 17.25, 1],
					"rotation": [0, -60, 0]
				},
				{
					"name": "petal_left_back",
					"parent": "petal_left_back0",
					"pivot": [2, 17.25, 1]
				},
				{
					"name": "petal_left_back2",
					"parent": "petal_left_back",
					"pivot": [7, 17.25, 1]
				},
				{
					"name": "petal_right_back0",
					"parent": "flower",
					"pivot": [0, 17.3, 1],
					"rotation": [0, 60, 0]
				},
				{
					"name": "petal_right_back",
					"parent": "petal_right_back0",
					"pivot": [-2, 17.3, 1]
				},
				{
					"name": "petal_right_back2",
					"parent": "petal_right_back",
					"pivot": [-7, 17.3, 1]
				},
				{
					"name": "petal_right_front0",
					"parent": "flower",
					"pivot": [0, 17.15, 1],
					"rotation": [0, -60, 0]
				},
				{
					"name": "petal_right_front",
					"parent": "petal_right_front0",
					"pivot": [-2, 17.15, 1]
				},
				{
					"name": "petal_right_front2",
					"parent": "petal_right_front",
					"pivot": [-7, 17.15, 1]
				},
				{
					"name": "petal_left_front0",
					"parent": "flower",
					"pivot": [0, 17.3, 1],
					"rotation": [0, 60, 0]
				},
				{
					"name": "petal_left_front",
					"parent": "petal_left_front0",
					"pivot": [2, 17.3, 1]
				},
				{
					"name": "petal_left_front2",
					"parent": "petal_left_front",
					"pivot": [7, 17.3, 1]
				},
				{
					"name": "petal_right_middle",
					"parent": "flower",
					"pivot": [-2.5, 17.4, 1]
				},
				{
					"name": "petal_right_middle2",
					"parent": "petal_right_middle",
					"pivot": [-7.5, 17.4, 1]
				},
				{
					"name": "petal_left_middle",
					"parent": "flower",
					"pivot": [2.5, 17.4, 1]
				},
				{
					"name": "petal_left_middle2",
					"parent": "petal_left_middle",
					"pivot": [7.5, 17.4, 1]
				},
				{
					"name": "leg_front_right2",
					"parent": "body2",
					"pivot": [-6.75, 7.5, -1.75],
					"rotation": [0, 2.5, 0]
				},
				{
					"name": "leg_front_left2",
					"parent": "body2",
					"pivot": [6.75, 7.5, -1.75],
					"rotation": [0, -2.5, 0]
				},
				{
					"name": "leg_back_right2",
					"parent": "body2",
					"pivot": [-7, 6.5, 7.25],
					"rotation": [0, 2.5, 0]
				},
				{
					"name": "leg_back_right3",
					"parent": "leg_back_right2",
					"pivot": [-7, 3, 7.25]
				},
				{
					"name": "leg_back_left2",
					"parent": "body2",
					"pivot": [7, 6.5, 7.25],
					"rotation": [0, -2.5, 0]
				},
				{
					"name": "leg_back_left3",
					"parent": "leg_back_left2",
					"pivot": [7, 3, 7.25]
				}
			]
		}
	]
}