{
	"format_version": "1.8.0",
	"animations": {
		"animation.dusknoir.ground_idle": {
			"loop": true,
			"bones": {
				"arm_left": {
					"rotation": [-9.02039, -1.32464, 24.05148]
				},
				"arm_left2": {
					"rotation": [0, 60, 0]
				},
				"hand_left": {
					"rotation": [15.0547, 4.82922, 1.29717]
				},
				"fingers_left": {
					"rotation": [0, 10, 0]
				},
				"finger1_left": {
					"rotation": [5, 15, 5]
				},
				"finger1_left2": {
					"rotation": [0, 30, 0]
				},
				"finger2_left": {
					"rotation": [0, 5, 2.5]
				},
				"finger2_left2": {
					"rotation": [0, 12.5, 0]
				},
				"finger3_left2": {
					"rotation": [0, 17.5, 0]
				},
				"finger4_left": {
					"rotation": [0, 10, -5]
				},
				"finger4_left2": {
					"rotation": [0, 17.5, 0]
				},
				"thumb_left": {
					"rotation": [-11.23272, 36.01651, -18.66201],
					"position": [0, 0, 0]
				},
				"thumb_left2": {
					"rotation": [0, 0, 27.5]
				},
				"arm_right": {
					"rotation": [0.98448, 7.43547, -27.43603]
				},
				"arm_right2": {
					"rotation": [0, -65, 0]
				},
				"hand_right": {
					"rotation": [40, 0, 0]
				},
				"fingers_right": {
					"rotation": [0, -20, 0]
				},
				"finger1_right": {
					"rotation": [0, -10, -5]
				},
				"finger1_right2": {
					"rotation": [0, -27.5, 0]
				},
				"finger2_right": {
					"rotation": [0, 5, 0]
				},
				"finger2_right2": {
					"rotation": [0, -15, 0]
				},
				"finger3_right": {
					"rotation": [0, 12.5, 0]
				},
				"finger3_right2": {
					"rotation": [0, -27.5, 0]
				},
				"finger4_right": {
					"rotation": [0.88045, 9.96156, 5.07673]
				},
				"finger4_right2": {
					"rotation": [0, -30, 0]
				},
				"thumb_right": {
					"rotation": [-12.00432, -19.50645, 13.27463],
					"position": [0, 0, 0.75]
				},
				"thumb_right2": {
					"rotation": [0, 0, -15]
				},
				"head": {
					"rotation": [-7.5, 0, 0]
				},
				"tail": {
					"rotation": [0, 0, 0]
				},
				"body": {
					"rotation": [10, 0, 0],
					"position": [0, 0, 3]
				},
				"lower_torso": {
					"rotation": [0, 0, 0]
				}
			}
		}
	}
}