{
	"format_version": "1.8.0",
	"animations": {
		"animation.hitmontop.ground_idle": {
			"loop": true,
			"bones": {
				"body": {
					"position": [0, -1, 0]
				},
				"torso": {
					"rotation": [7.5, 0, 0]
				},
				"head": {
					"rotation": [-7.5, 0, 0]
				},
				"arm_left": {
					"rotation": [0, -15, 45]
				},
				"arm_left2": {
					"rotation": [0, 42.5, 0]
				},
				"hand_left": {
					"rotation": [0, 22.5, 0]
				},
				"arm_right": {
					"rotation": [0, 15, -45]
				},
				"arm_right2": {
					"rotation": [0, -42.5, 0]
				},
				"hand_right": {
					"rotation": [0, -22.5, 0]
				},
				"tail": {
					"rotation": [5, 0, 0]
				},
				"tail2": {
					"rotation": [42.5, 0, 0]
				},
				"tail3": {
					"rotation": [30, 0, 0]
				},
				"leg_left": {
					"rotation": [-27.5, -17.5, 0]
				},
				"leg_left2": {
					"rotation": [42.5, 0, 0]
				},
				"foot_left": {
					"rotation": [-15, 0, 0]
				},
				"leg_right": {
					"rotation": [-27.5, 17.5, 0]
				},
				"leg_right2": {
					"rotation": [42.5, 0, 0]
				},
				"foot_right": {
					"rotation": [-15, 0, 0]
				}
			}
		},
		"animation.hitmontop.blink": {
			"animation_length": 0.16667,
			"bones": {
				"eyelid_left": {
					"position": {
						"0.0": [0, 0, -0.1],
						"0.125": [0, 0, -0.1],
						"0.1667": [0, 0, 0]
					}
				},
				"eyelid_right": {
					"position": {
						"0.0": [0, 0, -0.1],
						"0.125": [0, 0, -0.1],
						"0.1667": [0, 0, 0]
					}
				}
			}
		},
		"pose": {
			"loop": true,
			"bones": {
				"head": {
					"rotation": [2.5, 17.5, 0]
				},
				"torso": {
					"rotation": [0, 0, 5]
				},
				"leg_left": {
					"rotation": [-15.18518, -83.57233, -26.28749]
				},
				"leg_left2": {
					"rotation": [40, 0, 0]
				},
				"arm_left": {
					"rotation": [-30, 0, 15]
				},
				"arm_left2": {
					"rotation": [0, 42.5, 0]
				},
				"tail": {
					"rotation": [-32.73241, 24.4045, 32.73241]
				},
				"tail2": {
					"rotation": [27.5, 0, 0]
				},
				"tail3": {
					"rotation": [27.5, 0, 0]
				},
				"body": {
					"rotation": [-10, 0, -170],
					"position": [0, 4, 0]
				},
				"arm_right": {
					"rotation": [-75.94385, -38.19351, -0.28391]
				},
				"arm_right2": {
					"rotation": [0, -30, 0]
				},
				"leg_right": {
					"rotation": [-49.98571, 41.0838, 11.13079]
				},
				"leg_right2": {
					"rotation": [12.5, 0, 0]
				},
				"foot_right": {
					"rotation": [-12.5, 0, 0]
				}
			}
		}
	}
}