{
	"format_version": "1.8.0",
	"animations": {
		"animation.sprigatito.idle": {
			"loop": true,
			"bones": {
				"neck": {
					"rotation": [5, 0, 0]
				},
				"neck_fur_front": {
					"rotation": [-2.5, 0, 0]
				},
				"tail": {
					"rotation": [5, 0, 0]
				}
			}
		},
		"animation.sprigatito.blink": {
			"animation_length": 0.1667,
			"bones": {
				"eyelid_right": {
					"position": {
						"0.0": [0, 0, -0.1],
						"0.12": [0, 0, -0.1],
						"0.16": [0, 0, 0]
					}
				},
				"eyelid_left": {
					"position": {
						"0.0": [0, 0, -0.1],
						"0.12": [0, 0, -0.1],
						"0.16": [0, 0, 0]
					}
				}
			}
		}
	}
}