{
	"format_version": "1.12.0",
	"minecraft:geometry": [
		{
			"description": {
				"identifier": "geometry.blissey",
				"texture_width": 128,
				"texture_height": 64,
				"visible_bounds_width": 3,
				"visible_bounds_height": 2.5,
				"visible_bounds_offset": [0, 0.75, 0]
			},
			"bones": [
				{
					"name": "blissey",
					"pivot": [0, 0, 0]
				},
				{
					"name": "body",
					"parent": "blissey",
					"pivot": [0, 10.5, 0]
				},
				{
					"name": "torso",
					"parent": "body",
					"pivot": [0, 2, 0],
					"cubes": [
						{"origin": [-3, 3.5, -10.75], "size": [6, 4, 6], "uv": [63, 39]},
						{"origin": [-7, 2, -6.5], "size": [14, 17, 13], "uv": [0, 0]},
						{"origin": [-7.76231, 9.02, -4.32773], "size": [0, 6, 7], "pivot": [-7.76231, 11.52, -1.32773], "rotation": [0, -15, 0], "uv": [0, 44]},
						{"origin": [7.76231, 9.02, -4.32773], "size": [0, 6, 7], "pivot": [7.76231, 11.52, -1.32773], "rotation": [0, 15, 0], "uv": [39, 23]}
					]
				},
				{
					"name": "egg",
					"parent": "torso",
					"pivot": [0, 6.25, -7.75],
					"cubes": [
						{"origin": [-2.5, 4.5, -10.25], "size": [5, 5, 5], "uv": [42, 48]},
						{"origin": [-2, 8, -9.75], "size": [4, 3, 4], "uv": [62, 49]}
					]
				},
				{
					"name": "eye_left",
					"parent": "torso",
					"pivot": [1.75, 15.5, -6.01],
					"cubes": [
						{"origin": [1.25, 14.5, -6.51], "size": [1, 2, 1], "uv": [0, 30]}
					]
				},
				{
					"name": "eyelid_left",
					"parent": "eye_left",
					"pivot": [1.75, 15.5, -5.91],
					"cubes": [
						{"origin": [1.25, 14.5, -6.41], "size": [1, 2, 1], "inflate": 0.01, "uv": [8, 8]}
					]
				},
				{
					"name": "eye_right",
					"parent": "torso",
					"pivot": [-1.75, 15.5, -6.01],
					"cubes": [
						{"origin": [-2.25, 14.5, -6.51], "size": [1, 2, 1], "uv": [0, 0]}
					]
				},
				{
					"name": "eyelid_right",
					"parent": "eye_right",
					"pivot": [-1.75, 15.5, -5.91],
					"cubes": [
						{"origin": [-2.25, 14.5, -6.41], "size": [1, 2, 1], "inflate": 0.01, "uv": [0, 3]}
					]
				},
				{
					"name": "mouth_open",
					"parent": "torso",
					"pivot": [0, 13.25, -6.41],
					"cubes": [
						{"origin": [-2, 12.25, -6.41], "size": [4, 2, 0], "uv": [0, 10]}
					]
				},
				{
					"name": "mouth_closed",
					"parent": "torso",
					"pivot": [0, 13.25, -6.51],
					"cubes": [
						{"origin": [-2, 12.25, -6.51], "size": [4, 2, 0], "uv": [0, 8]}
					]
				},
				{
					"name": "hair_right",
					"parent": "torso",
					"pivot": [-5, 18, 0],
					"rotation": [0, 0, 15],
					"cubes": [
						{"origin": [-8, 16, -7], "size": [4, 4, 4], "uv": [26, 54]},
						{"origin": [-8, 16, 3], "size": [4, 4, 4], "uv": [54, 13]},
						{"origin": [-9, 15, -3], "size": [6, 6, 6], "uv": [39, 36]}
					]
				},
				{
					"name": "hair_left",
					"parent": "torso",
					"pivot": [5, 18, 0],
					"rotation": [0, 0, -15],
					"cubes": [
						{"origin": [4, 16, -7], "size": [4, 4, 4], "uv": [10, 54]},
						{"origin": [4, 16, 3], "size": [4, 4, 4], "uv": [53, 26]},
						{"origin": [3, 15, -3], "size": [6, 6, 6], "uv": [21, 30]}
					]
				},
				{
					"name": "arm_right",
					"parent": "torso",
					"pivot": [-7, 10.5, -2],
					"cubes": [
						{"origin": [-13, 9, -4], "size": [7, 3, 2], "uv": [57, 34]}
					]
				},
				{
					"name": "arm_left",
					"parent": "torso",
					"pivot": [7, 10.5, -2],
					"cubes": [
						{"origin": [6, 9, -4], "size": [7, 3, 2], "uv": [54, 21]}
					]
				},
				{
					"name": "leftfrontfluff",
					"parent": "torso",
					"pivot": [-6.25, 6.5, -5.5],
					"rotation": [35, 40, 0],
					"cubes": [
						{"origin": [-7.10721, 6.93939, -10.12751], "size": [3, 0, 4], "uv": [0, 4]}
					]
				},
				{
					"name": "rightfrontfluff",
					"parent": "torso",
					"pivot": [6.25, 6.5, -5.5],
					"rotation": [35, -40, 0],
					"cubes": [
						{"origin": [4.10721, 6.93939, -10.12751], "size": [3, 0, 4], "uv": [0, 0]}
					]
				},
				{
					"name": "leftfluff",
					"parent": "torso",
					"pivot": [7, 7.25, 0],
					"rotation": [10, -2.5, 25],
					"cubes": [
						{"origin": [6.95638, 7.42348, -6.48387], "size": [5, 0, 11], "uv": [0, 30]}
					]
				},
				{
					"name": "rightfluff",
					"parent": "torso",
					"pivot": [-7, 7.25, 0],
					"rotation": [10, 2.5, -25],
					"cubes": [
						{"origin": [-11.95638, 7.42348, -6.48387], "size": [5, 0, 11], "uv": [30, 0]}
					]
				},
				{
					"name": "foot_left",
					"parent": "body",
					"pivot": [3.5, 2, 0.5],
					"cubes": [
						{"origin": [1.5, 0, -4.5], "size": [4, 2, 8], "uv": [43, 3]}
					]
				},
				{
					"name": "foot_right",
					"parent": "body",
					"pivot": [-3.5, 2, 0.5],
					"cubes": [
						{"origin": [-5.5, 0, -4.5], "size": [4, 2, 8], "uv": [0, 41]}
					]
				}
			]
		}
	]
}